{

    "rank": {
        "level": 1,
        "thaco": 20,
        "turnLevel": 0,
        "xp": 2000,
        "hdformula": "1d6",
        "baseMove": null,
        "baseAC": null,
        "classpoints": 0,
        "title": "",

        "paralyzation": 20,
        "poison": 20,
        "death": 20,
        "rod": 20,
        "staff": 20,
        "wand": 20,
        "petrification": 20,
        "polymorph": 20,
        "breath": 20,
        "spell": 20,
        "divine": [
            0,
            0,
            0,
            0,
            0,
            0,
            0,
            0
        ],
        "arcane": [
            0,
            0,
            0,
            0,
            0,
            0,
            0,
            0,
            0,
            0
        ],
        "casterlevel": {
            "arcane": 0,
            "divine": 0
        }
    },
    "saveCheck": {
        "saveCheck": {
            "type": "spell",
            "formula": ""
        }
    },
    "castShapeRange": {
        "formula": ""
    },
    "castShapeProperties": {
        "castShapeLength": {
            "formula": ""
        },
        "castShapeWidth": {
            "formula": ""
        },
        "castShapeRadius": {
            "formula": ""
        },
        "castShapeAngle": {
            "formula": ""
        }

    },
    "abilityCheck": {
        "abilityCheck": {
            "type": "none",
            "formula": ""
        }
    },
    "simpleCheck": {
        "simpleCheck": {
            "type": "",
            "formula": ""
        }
    },
    "actionEffect": {
        "durationFormula": "",
        "durationType": "round",
        "changes": [

        ],
        "key": "",
        "mode": 0,
        "value": ""
    },
    "action": {
        "img": "icons/weapons/staves/staff-ornate-red.webp",
        "ability": "none",
        "castShapeAngle": {
            "formula": ""
        },
        "castShapeLength": {
            "formula": ""
        },
        "castShapeRadius": {
            "formula": ""
        },
        "castShapeWidth": {
            "formula": ""
        },
        "castShapeProperties": {
            "castShapeRadius": {
                "formula": ""
            },
            "range": {
                "formula": ""
            },
            "inRangeColor": "#f2ed69",
            "outOfRangeColor": "#a80000"
        },
        "type": "cast",
        "targeting": "",
        "targetShape": {
            "type": "circle"
        },
        "targetShapeSelection": {
            "type": "all"
        },
        "successAction": "",
        "formula": "",
        "otherdmg": [],
        "effectList": [],
        "effect": {
            "duration": {
                "formula": "",
                "type": "round"
            },
            "changes": []
        },
        "itemList": [],
        "speed": 0,
        "damagetype": "slashing",
        "dmonlytext": "",
        "resource": {
            "type": "none",
            "itemId": "",
            "reusetime": "",
            "count": {
                "cost": 1,
                "min": 0,
                "max": 1,
                "value": 0
            }
        },
        "parentuuid": "",
        "magicpotency": 0,
        "misc": "",
        "properties": [],
        "saveCheck": {
            "formula": "",
            "type": "spell"
        }
    },
    "npclist": {
        "id": "",
        "name": "",
        "img": "",
        "count": "",
        "pack": "",
        "hp": 0,
        "xp": 0
    }
}